{
    "section_name": "MANAGEMENT",
    "keywords": ["MANAGEMENT", "Individual"],
    "description": ["Each subsequent person on the list should be identified by a number sequence as shown in the \n",
        "example below:\n",
        "Note: This should include all managers, the columns should go up to however many shareholders there are"],
    "sub_sections": [
        {
            "section_name": "Manager Name",
            "description": "",
            "keywords": ["Name"],
            "fields": []
        }
    ],
    "common_fields": [
        {
            "field_name": "Manager Name",
            "description": "",
            "keywords": ["Name"],
            "sub_fields": [
                {
                    "field_name": "CRiS No",
                    "description": "Each individual has a separate Cris No",
                    "splitter": "CRiS No"
                }
            ]
        },
        {
            "field_name": "Position",
            "description": "",
            "keywords": ["Position"]
        },
        {
            "field_name": "Nationality",
            "description": "",
            "keywords": ["Nationality"]
        },
        {
            "field_name": "Languages",
            "description": "",
            "keywords": ["Languages"]
        }
    ]
}