{
    "section_name": "CRiS No/PROFILE",
    "keywords": ["PROFILE"],
    "description": ["The following fields should be parsed from the pdf (the paragraphs on the law requirements are \n",
        "not needed): \n"],
    "sub_sections": [
        {
            "section_name": "Legal Form",
            "description": "",
            "keywords": [
                "Legal Form"
            ],
            "fields": [
                {
                    "field_name": "Legal Form",
                    "description": "",
                    "keywords": ["Legal Form"]
                },
                {
                    "field_name": "Start Date",
                    "description": "",
                    "keywords": ["Start Date"]
                },
                {
                    "field_name": "Date Registered",
                    "description": "",
                    "keywords": ["Date Registered"]
                }
            ]
        },
        {
            "section_name": "License",
            "description": "",
            "keywords": ["License"],
            "fields":[
                {
                    "field_name": "License",
                    "description": "",
                    "keywords": ["License"]
                },
                {
                    "field_name": "Type",
                    "description": "",
                    "keywords": ["Type"],
                    "sub_fields": [
                        {
                            "field_name": "Status",
                            "description": "",
                            "splitter": "Status"
                        }
                    ]
                },
                {
                    "field_name": "Number",
                    "description": "",
                    "keywords": ["Number"]
                },
                {
                    "field_name": "Issue Date",
                    "description": "",
                    "keywords": ["Issue Date"]
                },
                {
                    "field_name": "Expiry Date",
                    "description": "",
                    "keywords": ["Expiry Date"]
                }
            ]
        },
        {
            "section_name": "Commercial Register",
            "description": "",
            "keywords": ["Commercial Register"],
            "fields":[
                {
                    "field_name": "Commercial Register",
                    "description": "",
                    "keywords": ["Commercial Register"]
                },
                {
                    "field_name": "Type",
                    "description": "",
                    "keywords": ["Type"],
                    "sub_fields": [
                        {
                            "field_name": "Status",
                            "description": "",
                            "splitter": "Status"
                        }
                    ]
                },
                {
                    "field_name": "Number",
                    "description": "",
                    "keywords": ["Number"]
                },
                {
                    "field_name": "Issue Date",
                    "description": "",
                    "keywords": ["Issue Date"]
                },
                {
                    "field_name": "Expiry Date",
                    "description": "",
                    "keywords": ["Expiry Date"]
                }
            ]
        },
        {
            "section_name": "Chamber of Commerce",
            "description": "",
            "keywords": ["Chamber of Commerce"],
            "fields": [
                {
                    "field_name": "Chamber of Commerce",
                    "description": "",
                    "keywords": ["Chamber of Commerce"]
                },
                {
                    "field_name": "Type",
                    "description": "",
                    "keywords": ["Type"],
                    "sub_fields": [
                        {
                            "field_name": "Status",
                            "description": "",
                            "splitter": "Status"
                        }
                    ]
                },
                {
                    "field_name": "Number",
                    "description": "",
                    "keywords": ["Number"]
                },
                {
                    "field_name": "Issue Date",
                    "description": "",
                    "keywords": ["Issue Date"]
                },
                {
                    "field_name": "Expiry Date",
                    "description": "",
                    "keywords": ["Expiry Date"]
                }
            ]
        },
        {
            "section_name": "Issued",
            "description": "this refers to the issued capital and the headers should be named as Issued Capital in the final output file",
            "keywords": ["Capital"],
            "fields": []
        }
    ],
    "common_fields": []
}