{
    "section_name": "ACTIVITIES",
    "keywords": ["OPERATION", "Activities", "Activities Details"],
    "description": ["The following fields should be included: \n"],
    "sub_sections": [
        {
            "section_name": "Activity",
            "description": ["This field usually includes multiple codes. Each code should be parsed as a separate \n",
                "column as shown below. Number each column corresponding to the amount of activities. \n",
                "       O Activity Description: Non-Specialized wholesale of …. \n",
                "       O Activity Code: 46.39 \n"],
            "keywords": ["Activity"],
            "fields": [
                {
                    "field_name": "Activity Code",
                    "description": "",
                    "keywords": ["Activity"],
                    "sub_fields":[
                        {
                            "field_name": "Activity Description",
                            "description": "",
                            "splitter": "-"
                        }
                    ]
                }
            ]
        },
        {

            "section_name": "Imports",
            "description": "This usually includes a list of countries which can all be included as a list in the same column",
            "keywords": ["Imports From"],
            "fields": [
                {
                    "field_name": "Imports",
                    "description": "",
                    "keywords": ["Imports From"],
                    "multi-line": true
                }
            ]
        },
        {
            "section_name": "Exports",
            "description": "This usually includes a list of countries which can all be included as a list in the same column",
            "keywords": ["Exports To", "Exports To"],
            "fields": [
                {
                    "field_name": "Exports",
                    "description": "",
                    "keywords": ["Exports", "Exports To"],
                    "multi-line": true
                }
            ]
        },
        {
            "section_name": "No of Employees",
            "description": ["This field is organized by year. Each year should occupy a separate column as shown below: \n",
                "this field should grab the percent ownership \n",
                "       O 2015: 15 \n",
                "       O 2016: 25 \n",
                "       O 2017: 25 \n"],
            "keywords": ["No. of Employees", "Year  Employees Number"],
            "fields":[
                {
                    "field_name": "Year and No Employees",
                    "description": "",
                    "keywords": ["Year  Employees Number"],
                    "multi-line": true,
                    "sub_fields": [
                         {
                            "field_name": "No of Employees",
                            "description": "",
                            "splitter": "  "
                        }
                    ]
                }
            ]
        }

    ],
    "common_fields": []
}